{
  "dataPath": "C:\\Users\\Florian\\AppData\\Local\\FoundryVTT",
  "manifest": "src",
  "repository": "https://gitlab.com/florad-foundry/wikijs-integration",
  "rawURL": "https://gitlab.com/florad-foundry/wikijs-integration/-/raw"
}
